<svg xmlns="http://www.w3.org/2000/svg" width="138.871" height="78.91" viewBox="0 0 138.871 78.91">
  <g id="deal" transform="translate(-4.162 -26.122)">
    <path id="Path_13256" data-name="Path 13256" d="M38.393,43.887c1.315,0,22.925,3.841,22.925,3.841L95.85,77.734s1.007,7.577-7.276,5.378c0,0,1.173,6.3-6.3,4.984,0,0-.147,6.817-6.89,3.885,0,0-.513,5.937-5.131,4.325S40.124,88.39,35.433,84.871s-12.578-18.08-12.578-18.08Z" transform="translate(6.838 6.499)" fill="#f7be56"/>
    <g id="Group_6789" data-name="Group 6789" transform="translate(37.474 43.557)">
      <path id="Path_13257" data-name="Path 13257" d="M93.97,38.887,83.507,45.738S68.635,44.244,62,44.493s-14.362,1.619-15.857,2.989-7.972,12.954-7.972,12.954a10.3,10.3,0,0,0,11.46,0c5.979-3.986,5.979-4.982,5.979-4.982l6.975.747L90.249,79.563s10.073-2.061,13.437-12.151l9.093-4.609Z" transform="translate(-25.035 -38.887)" fill="#fcd462"/>
      <path id="Path_13258" data-name="Path 13258" d="M38.508,68.677l-.332-.207a3.957,3.957,0,0,0-5.453,1.261l-3.57,5.719A3.957,3.957,0,0,0,30.414,80.9l.332.207A3.957,3.957,0,0,0,36.2,79.849l3.57-5.719a3.957,3.957,0,0,0-1.261-5.452Z" transform="translate(-28.552 -28.286)" fill="#fcd462"/>
      <path id="Path_13259" data-name="Path 13259" d="M44.092,71.265l-.332-.207a3.957,3.957,0,0,0-5.453,1.261l-3.57,5.719A3.957,3.957,0,0,0,36,83.491l.332.207a3.957,3.957,0,0,0,5.452-1.261l3.57-5.719a3.957,3.957,0,0,0-1.261-5.452Z" transform="translate(-26.509 -27.339)" fill="#fcd462"/>
      <path id="Path_13260" data-name="Path 13260" d="M50,73.5l-.332-.207a3.957,3.957,0,0,0-5.453,1.261l-3.57,5.719A3.957,3.957,0,0,0,41.9,85.729l.332.207a3.957,3.957,0,0,0,5.452-1.261l3.57-5.719A3.957,3.957,0,0,0,50,73.5Z" transform="translate(-24.349 -26.52)" fill="#fcd462"/>
      <path id="Path_13261" data-name="Path 13261" d="M53.956,76.4l-.267-.166a3.182,3.182,0,0,0-4.384,1.014l-2.871,4.6a3.182,3.182,0,0,0,1.014,4.384l.267.166A3.182,3.182,0,0,0,52.1,85.381l2.871-4.6A3.182,3.182,0,0,0,53.956,76.4Z" transform="translate(-22.187 -25.403)" fill="#fcd462"/>
    </g>
    <path id="Path_13262" data-name="Path 13262" d="M0,0H18.752V33.211H0Z" transform="translate(97.916 46.229) rotate(-35.518)" fill="#ebf0f3"/>
    <path id="Path_13263" data-name="Path 13263" d="M0,0H24.907V38.248H0Z" transform="translate(100.537 40.593) rotate(-35.518)" fill="#474c5b"/>
    <path id="Path_13264" data-name="Path 13264" d="M0,0H18.752V33.211H0Z" transform="translate(29.979 76.727) rotate(-144.482)" fill="#ebf0f3"/>
    <path id="Path_13265" data-name="Path 13265" d="M0,0H24.907V38.248H0Z" transform="translate(24.437 75.193) rotate(-144.482)" fill="#474c5b"/>
  </g>
</svg>
