<svg xmlns="http://www.w3.org/2000/svg" width="47.575" height="47.575" viewBox="0 0 47.575 47.575">
  <g id="_005-meat" data-name="005-meat" transform="translate(-0.001 -0.424)">
    <ellipse id="Oval" cx="12.8" cy="4.8" rx="12.8" ry="4.8" transform="translate(29.474 0.424) rotate(45)" fill="#c56458"/>
    <path id="Path" d="M4.219,6.482a26.05,26.05,0,0,1-4.1-5.189A.855.855,0,0,1,1.293.123a26.072,26.072,0,0,1,5.189,4.1,26.05,26.05,0,0,1,4.1,5.189.855.855,0,0,1-1.17,1.17A26.1,26.1,0,0,1,4.219,6.482Z" transform="translate(29.78 7.519)" fill="#fbd490"/>
    <path id="Path-2" data-name="Path" d="M16.357,12.445c-5-5-7.531-10.57-5.657-12.445C3.984,6.717-3.349,22.154,1.649,27.153S22.085,24.818,28.8,18.1C26.928,19.976,21.356,17.444,16.357,12.445Z" transform="translate(15.379 3.818)" fill="#773f3a"/>
    <path id="Path-3" data-name="Path" d="M18.154,2.37a4.866,4.866,0,0,1-1.125-.83A5,5,0,0,1,16,0L10.5,5.5A9.225,9.225,0,0,1,3.4,8.175a3.337,3.337,0,0,0-.952.08A3.2,3.2,0,0,0,3.2,14.569c.04,0,.077-.01.117-.012A2.9,2.9,0,0,0,4.37,17.663a2.943,2.943,0,0,0,2.129.9,3.2,3.2,0,0,0,3.1-3.2v-.036a9.727,9.727,0,0,1,2.682-7.09Z" transform="translate(0.001 29.431)" fill="#fbd490"/>
    <path id="Path-4" data-name="Path" d="M10.649,6.933a.8.8,0,0,1-.45-.14A17.175,17.175,0,0,1,7.771,4.762,17.084,17.084,0,0,1,5.739,2.334,1.673,1.673,0,0,0,4.261,1.6a1.7,1.7,0,0,0-1.416.862,22.921,22.921,0,0,0-1.3,2.7.8.8,0,1,1-1.485-.6,24.252,24.252,0,0,1,1.394-2.89,3.312,3.312,0,0,1,5.608-.248A15.73,15.73,0,0,0,8.9,3.63a15.628,15.628,0,0,0,2.2,1.842.8.8,0,0,1-.451,1.46Z" transform="translate(19.999 13.601)" fill="#994530"/>
    <path id="Path-5" data-name="Path" d="M4.224,5.033A4.258,4.258,0,0,1,1.1,3.937,4.257,4.257,0,0,1,0,.8.8.8,0,0,1,.8,0h0a.8.8,0,0,1,.8.8,2.748,2.748,0,0,0,.63,2c1.259,1.259,4.909.582,8.873-1.65a.8.8,0,1,1,.785,1.394A17.171,17.171,0,0,1,4.224,5.033Z" transform="translate(18.104 24.801)" fill="#994530"/>
  </g>
</svg>
