<svg xmlns="http://www.w3.org/2000/svg" width="173" height="120" viewBox="0 0 173 120">
  <g id="motorbike" transform="translate(0 -0.469)">
    <path id="Path" d="M36,18A18,18,0,1,1,18,0,18,18,0,0,1,36,18Z" transform="translate(129 84.469)" fill="#515759"/>
    <path id="Path-2" data-name="Path" d="M36,18A18,18,0,1,1,18,0,18,18,0,0,1,36,18Z" transform="translate(21 84.469)" fill="#515759"/>
    <path id="Path-3" data-name="Path" d="M0,0H7.314A6.986,6.986,0,0,1,13.8,4.191l.7,1.666A6.705,6.705,0,0,1,8.013,15H5.235Z" transform="translate(119 31.469)" fill="#d0e8ef"/>
    <path id="Path-4" data-name="Path" d="M0,0V7.332A3.566,3.566,0,0,0,3.453,11H43V0Z" transform="translate(77 78.469)" fill="#a0513f"/>
    <path id="Path-5" data-name="Path" d="M25.578,0H2.652a2.572,2.572,0,0,0,0,5.143H8.725v2.57a.858.858,0,0,1-.855.858h-5.3a2.571,2.571,0,0,0,0,5.142h5.3a6,6,0,0,0,5.987-6V5.142h5.9v5.83L29,15V3.429A3.426,3.426,0,0,0,25.578,0Z" transform="translate(82 8.469)" fill="#adadad"/>
    <path id="Path-6" data-name="Path" d="M23,18A17.868,17.868,0,0,1,5.266,36,17.391,17.391,0,0,1,0,35.192,17.978,17.978,0,0,0,12.465,18,17.979,17.979,0,0,0,0,.808,17.391,17.391,0,0,1,5.266,0,17.868,17.868,0,0,1,23,18Z" transform="translate(34 84.469)" fill="#373a3a"/>
    <path id="Path-7" data-name="Path" d="M7,14a7,7,0,1,1,7-7,7,7,0,0,1-7,7Z" transform="translate(140 95.469)" fill="#e8e8e8"/>
    <path id="Path-8" data-name="Path" d="M23,18A17.87,17.87,0,0,1,5.264,36,17.377,17.377,0,0,1,0,35.192,17.981,17.981,0,0,0,12.463,18,17.979,17.979,0,0,0,0,.81,17.377,17.377,0,0,1,5.264,0,17.87,17.87,0,0,1,23,18Z" transform="translate(141 84.469)" fill="#373a3a"/>
    <path id="Path-9" data-name="Path" d="M3.428,0H12V15H3.428A3.383,3.383,0,0,1,0,11.666V3.333A3.382,3.382,0,0,1,3.428,0Z" transform="translate(0 86.469)" fill="#ccc"/>
    <path id="Path-10" data-name="Path" d="M32.722,0H0V14H38V5.25A5.265,5.265,0,0,0,32.722,0Z" transform="translate(39 31.469)" fill="#a0513f"/>
    <path id="Path-11" data-name="Path" d="M15,5.249V14H5V5.249A5.131,5.131,0,0,0,0,0H10A5.13,5.13,0,0,1,15,5.249Z" transform="translate(62 31.469)" fill="#7a3730"/>
    <path id="Path-12" data-name="Path" d="M0,32H49.536A3.452,3.452,0,0,0,53,28.558V26.322A26.543,26.543,0,0,0,15.671,2.291Z" transform="translate(120 69.469)" fill="#c44545"/>
    <path id="Path-13" data-name="Path" d="M32,26.322v2.236A3.471,3.471,0,0,1,28.5,32H18.011a3.471,3.471,0,0,0,3.5-3.442V26.322A26.442,26.442,0,0,0,0,.5,27.434,27.434,0,0,1,5.246,0,26.54,26.54,0,0,1,32,26.322Z" transform="translate(141 69.469)" fill="#a83838"/>
    <path id="Path-14" data-name="Path" d="M11.812,81H0V48.808A27.786,27.786,0,0,1,27.878,21.115H68.649V65.422a3.474,3.474,0,0,0,3.484,3.463h34.059a3.468,3.468,0,0,0,3.384-4.289L93.564,0h8.794a6.969,6.969,0,0,1,6.51,4.452l20.185,52.477a14.183,14.183,0,0,1-1.521,13.086L120.049,81H49.16a1.742,1.742,0,0,1-1.71-1.394l-.974-4.87a5.22,5.22,0,0,0-5.127-4.179H19.622A5.221,5.221,0,0,0,14.5,74.736l-.974,4.87A1.742,1.742,0,0,1,11.812,81Z" transform="translate(8 20.469)" fill="#f66"/>
    <path id="Path-15" data-name="Path" d="M7,14a7,7,0,1,1,7-7,7,7,0,0,1-7,7Z" transform="translate(32 95.469)" fill="#e8e8e8"/>
    <path id="Path-16" data-name="Path" d="M0,0H36V33H7.128A7,7,0,0,1,0,26.125Z" transform="translate(6 8.469)" fill="#ffd47d"/>
    <path id="Path-17" data-name="Path" d="M40.733,0H5.267A5.387,5.387,0,0,0,0,5.5,5.388,5.388,0,0,0,5.267,11H40.733A5.388,5.388,0,0,0,46,5.5,5.387,5.387,0,0,0,40.733,0Z" transform="translate(1 0.469)" fill="#edaf54"/>
    <path id="Path-18" data-name="Path" d="M0,0H11V30H0Z" transform="translate(31 11.469)" fill="#edaf54"/>
    <path id="Path-19" data-name="Path" d="M15,5.5A5.269,5.269,0,0,1,10,11H0A5.056,5.056,0,0,0,4.713,7.334,5.957,5.957,0,0,0,5,5.5,5.759,5.759,0,0,0,3.533,1.613,4.76,4.76,0,0,0,0,0H10a4.761,4.761,0,0,1,3.534,1.613A5.759,5.759,0,0,1,15,5.5Z" transform="translate(32 0.469)" fill="#db8733"/>
    <path id="Path-20" data-name="Path" d="M10.5,0h-8a2.5,2.5,0,0,0,0,5h8a2.5,2.5,0,0,0,0-5Z" transform="translate(26 75.469)" fill="#d0e8ef"/>
  </g>
</svg>
