<svg xmlns="http://www.w3.org/2000/svg" width="32" height="32" viewBox="0 0 32 32">
  <path id="Path_145" data-name="Path 145" d="M16,16A8,8,0,1,0,8,8,8.024,8.024,0,0,0,16,16Zm0,4c-5.4,0-16,2.6-16,8v4H32V28C32,22.6,21.4,20,16,20Z" fill="#8f8f8f"/>
</svg>
