<?xml version="1.0" encoding="utf-8"?>
<!-- Generator: Adobe Illustrator 23.0.3, SVG Export Plug-In . SVG Version: 6.00 Build 0)  -->
<svg version="1.1" id="Layer_1" xmlns="http://www.w3.org/2000/svg" xmlns:xlink="http://www.w3.org/1999/xlink" x="0px" y="0px"
	 viewBox="0 0 200 91.8" style="enable-background:new 0 0 200 91.8;" xml:space="preserve">
<style type="text/css">
	.st0{fill:#FFFFFF;}
</style>
<g>
	<path class="st0" d="M58,63.9h1.8c0.2,0,0.5-0.1,0.6-0.3s0.3-0.4,0.3-0.6c0-1.1-0.2-2.2-0.5-3.2c-0.3-1.1-0.8-2-1.5-2.9
		c-0.6-0.9-1.4-1.7-2.3-2.4c-0.9-0.7-1.9-1.2-2.9-1.5l-3.5-14.2c0-0.2-0.2-0.4-0.3-0.5c-0.2-0.1-0.3-0.2-0.5-0.2h-1.1l-0.7-2.8v-5.2
		c0-0.2-0.1-0.5-0.3-0.6c-0.2-0.2-0.4-0.3-0.6-0.3h-0.9c0-0.4-0.1-0.7-0.2-1c-0.1-0.3-0.3-0.6-0.6-0.9c-0.2-0.2-0.5-0.4-0.9-0.6
		c-0.3-0.1-0.7-0.2-1-0.2h-0.9c-0.2,0-0.5,0.1-0.6,0.3s-0.3,0.4-0.3,0.6v3.6c0,0.2,0.1,0.5,0.3,0.6c0.2,0.2,0.4,0.3,0.6,0.3H43
		c0.8,0,1.4-0.3,2-0.9h0.7v3.6H43v1.8h2.9l0.4,1.8h-0.6c-0.3,0-0.5,0.1-0.7,0.3c-0.2,0.2-0.2,0.5-0.2,0.8l3.3,13.3
		c-0.9,0.2-1.7,0.4-2.5,0.8c-0.8,0.4-1.5,0.8-2.2,1.4c-0.7,0.5-1.3,1.2-1.8,1.8c-0.5,0.7-1,1.4-1.3,2.2v-0.2H29.6v-4.3l1.6-6.3h1.1
		c0.2,0,0.5-0.1,0.6-0.3c0.2-0.2,0.3-0.4,0.3-0.6v-3.6c0-0.2-0.1-0.5-0.3-0.6c-0.2-0.2-0.4-0.3-0.6-0.3H21.6V30.9
		c0-0.2-0.1-0.5-0.3-0.6c-0.2-0.2-0.4-0.3-0.6-0.3H8.3c-0.2,0-0.5,0.1-0.6,0.3c-0.2,0.2-0.3,0.4-0.3,0.6v13.3h4.4V47
		c0,0.2,0.1,0.4,0.2,0.5l-4.4,5.1c-0.1,0.2-0.2,0.4-0.2,0.6V63c0,0.2,0.1,0.5,0.3,0.6s0.4,0.3,0.6,0.3h1.8c0.1,0.5,0.2,1,0.3,1.4
		c0.1,0.5,0.3,0.9,0.6,1.3c0.2,0.4,0.5,0.8,0.8,1.2c0.3,0.4,0.6,0.7,1,1.1c0.4,0.3,0.8,0.6,1.2,0.9c0.4,0.3,0.9,0.5,1.3,0.6
		c0.5,0.2,0.9,0.3,1.4,0.4c0.5,0.1,1,0.1,1.4,0.1c0.5,0,1,0,1.4-0.1s0.9-0.2,1.4-0.4c0.5-0.2,0.9-0.4,1.3-0.6
		c0.4-0.3,0.8-0.5,1.2-0.9c0.4-0.3,0.7-0.7,1-1.1c0.3-0.4,0.6-0.8,0.8-1.2c0.2-0.4,0.4-0.9,0.6-1.3c0.1-0.5,0.2-0.9,0.3-1.4h16.1
		c0.1,0.5,0.2,1,0.3,1.4c0.1,0.5,0.3,0.9,0.6,1.3c0.2,0.4,0.5,0.8,0.8,1.2c0.3,0.4,0.6,0.7,1,1.1c0.4,0.3,0.8,0.6,1.2,0.9
		c0.4,0.3,0.9,0.5,1.3,0.6c0.5,0.2,0.9,0.3,1.4,0.4c0.5,0.1,1,0.1,1.4,0.1c0.5,0,1,0,1.4-0.1c0.5-0.1,0.9-0.2,1.4-0.4
		c0.5-0.2,0.9-0.4,1.3-0.6c0.4-0.3,0.8-0.5,1.2-0.9c0.4-0.3,0.7-0.7,1-1.1c0.3-0.4,0.6-0.8,0.8-1.2c0.2-0.4,0.4-0.9,0.6-1.3
		C57.9,64.8,58,64.3,58,63.9L58,63.9L58,63.9z M43,30.1v-1.8c0.3,0,0.5,0.1,0.6,0.3c0.2,0.2,0.3,0.4,0.3,0.6c0,0.2-0.1,0.5-0.3,0.6
		C43.4,30,43.2,30.1,43,30.1L43,30.1z M48.5,39.8l3.1,12.6c-0.6-0.1-1.2-0.1-1.8-0.1l-3.1-12.5H48.5L48.5,39.8z M31.4,44.3v1.8H13.6
		v-1.8H31.4L31.4,44.3z M9.2,31.8h10.7v10.7H9.2V31.8L9.2,31.8z M9.2,53.5l4.9-5.7h15.4l-1.5,6c0,0.1,0,0.1,0,0.2v5.3
		c0,0.2,0.1,0.5,0.3,0.6c0.2,0.2,0.4,0.3,0.6,0.3h11c-0.2,0.6-0.3,1.2-0.3,1.8H26c-0.1-0.5-0.2-1-0.3-1.4c-0.1-0.5-0.3-0.9-0.5-1.3
		c-0.2-0.4-0.5-0.8-0.8-1.2c-0.3-0.4-0.6-0.7-1-1.1c-0.4-0.3-0.8-0.6-1.2-0.9c-0.4-0.3-0.9-0.5-1.3-0.6c-0.5-0.2-0.9-0.3-1.4-0.4
		C19,55,18.5,55,18.1,55c-0.5,0-1,0-1.5,0.1c-0.5,0.1-0.9,0.2-1.4,0.4c-0.5,0.2-0.9,0.4-1.3,0.6c-0.4,0.3-0.8,0.5-1.2,0.9
		c-0.4,0.3-0.7,0.7-1,1.1c-0.3,0.4-0.6,0.8-0.8,1.2c-0.2,0.4-0.4,0.9-0.5,1.3c-0.1,0.5-0.2,0.9-0.3,1.4H9.2V53.5L9.2,53.5z
		 M24.2,62.1H11.9c0.1-0.7,0.3-1.4,0.7-2.1c0.4-0.7,0.8-1.2,1.4-1.7c0.6-0.5,1.2-0.9,1.9-1.1c0.7-0.3,1.4-0.4,2.2-0.4
		s1.5,0.1,2.2,0.4c0.7,0.3,1.3,0.6,1.9,1.1c0.6,0.5,1,1.1,1.4,1.7C23.9,60.6,24.1,61.3,24.2,62.1L24.2,62.1L24.2,62.1z M18.1,69.2
		c-0.7,0-1.5-0.1-2.2-0.4c-0.7-0.3-1.3-0.6-1.9-1.1c-0.6-0.5-1-1.1-1.4-1.7c-0.4-0.7-0.6-1.4-0.7-2.1h12.3c-0.1,0.7-0.3,1.4-0.7,2.1
		c-0.4,0.7-0.8,1.2-1.4,1.7c-0.6,0.5-1.2,0.9-1.9,1.1C19.5,69.1,18.8,69.2,18.1,69.2L18.1,69.2z M41.7,59.9c0.2-0.5,0.4-0.9,0.6-1.4
		c0.2-0.4,0.5-0.8,0.8-1.2c0.3-0.4,0.7-0.7,1-1.1c0.4-0.3,0.8-0.6,1.2-0.9c0.4-0.3,0.9-0.5,1.3-0.7c0.5-0.2,0.9-0.3,1.4-0.4
		c0.5-0.1,1-0.2,1.5-0.2c0.5,0,1,0,1.5,0.1c0.5,0.1,1,0.2,1.5,0.3c0.5,0.1,0.9,0.3,1.4,0.6c0.4,0.2,0.9,0.5,1.3,0.8
		c0.4,0.3,0.8,0.6,1.1,1c0.3,0.4,0.7,0.7,0.9,1.2c0.3,0.4,0.5,0.8,0.7,1.3c0.2,0.5,0.4,0.9,0.5,1.4c0.1,0.5,0.2,1,0.3,1.5H41.2
		C41.3,61.3,41.5,60.6,41.7,59.9L41.7,59.9L41.7,59.9z M50.1,69.2c-0.7,0-1.5-0.1-2.2-0.4c-0.7-0.3-1.3-0.6-1.9-1.1
		c-0.6-0.5-1-1.1-1.4-1.7c-0.4-0.7-0.6-1.4-0.7-2.1h12.3c-0.1,0.7-0.3,1.4-0.7,2.1c-0.4,0.7-0.8,1.2-1.4,1.7
		c-0.6,0.5-1.2,0.9-1.9,1.1C51.6,69.1,50.8,69.2,50.1,69.2L50.1,69.2L50.1,69.2z"/>
	<rect x="53.6" y="22.9" class="st0" width="7.1" height="1.8"/>
	<rect x="50.1" y="22.9" class="st0" width="1.8" height="1.8"/>
	<rect x="23.4" y="18.5" class="st0" width="8" height="1.8"/>
	<path class="st0" d="M98.8,23.9v33.8h-6.4v-3.1h-0.1c-1.5,2.5-3.9,3.8-7.4,3.8c-3.4,0-6-1.2-8-3.7c-2-2.5-3-5.6-3-9.4
		c0-3.7,1-6.8,3-9.1s4.6-3.5,7.8-3.5c1.5,0,2.9,0.3,4.2,0.9c1.3,0.6,2.3,1.5,3.1,2.7H92V23.9H98.8L98.8,23.9L98.8,23.9z M80.6,45.4
		c0,2.2,0.5,4.1,1.6,5.6c1.1,1.5,2.5,2.2,4.3,2.2c1.9,0,3.4-0.7,4.3-2.1c1-1.4,1.4-3.3,1.4-5.8c0-2.5-0.5-4.4-1.5-5.7
		c-1-1.4-2.4-2-4.3-2c-1.9,0-3.4,0.7-4.4,2.1C81.1,41.2,80.6,43.1,80.6,45.4L80.6,45.4L80.6,45.4z M115.1,32.6
		c2.3,0,4.4,0.5,6.2,1.6s3.2,2.6,4.2,4.7c1,2,1.5,4.4,1.5,7c0,0.3,0,0.7,0,1.2h-17.7c0.1,2,0.6,3.5,1.5,4.6c1,1.1,2.4,1.6,4.4,1.6
		c1.2,0,2.4-0.3,3.4-0.9s1.7-1.4,2-2.2h5.9c-1.7,5.5-5.6,8.2-11.5,8.2c-2.2,0-4.3-0.5-6.2-1.5c-1.9-0.9-3.4-2.4-4.6-4.4
		c-1.1-2-1.7-4.3-1.7-7c0-2.5,0.6-4.8,1.7-6.8c1.2-2.1,2.7-3.6,4.6-4.6S112.9,32.6,115.1,32.6L115.1,32.6L115.1,32.6z M120.3,42.8
		c-0.3-1.8-0.9-3.2-1.8-4c-0.9-0.8-2.1-1.2-3.6-1.2c-1.6,0-2.9,0.5-3.9,1.4s-1.5,2.2-1.7,3.8H120.3L120.3,42.8z M137.9,23.9v33.8
		h-6.7V23.9H137.9L137.9,23.9z M150.1,23.9v5.5h-6.7v-5.5H150.1L150.1,23.9z M150.1,33.2v24.5h-6.7V33.2H150.1L150.1,33.2z
		 M160.1,33.2l5.2,16.7h0.1l5.2-16.7h6.7l-8.3,24.5h-7.5l-8.4-24.5H160.1L160.1,33.2z M194.3,32.6c0.6,0,1.1,0.1,1.5,0.2V39
		c-0.7-0.2-1.5-0.2-2.4-0.2c-4.4,0-6.6,2.6-6.6,7.9v11H180V33.2h6.4v4.5h0.1c0.7-1.6,1.7-2.8,3.1-3.8
		C191.1,33,192.6,32.6,194.3,32.6L194.3,32.6L194.3,32.6z"/>
	<path class="st0" d="M103.2,74.6C103.2,74.6,103.2,74.7,103.2,74.6l-0.4,0.1c0,0-0.1,0-0.1-0.1l-0.4-0.9h-3l-0.4,0.9
		c0,0,0,0.1-0.1,0.1h-0.4c0,0-0.1,0,0-0.1l2.3-4.9c0,0,0-0.1,0.1-0.1h0.1c0,0,0.1,0,0.1,0.1L103.2,74.6L103.2,74.6z M99.4,73.2h2.6
		l-1.3-2.7L99.4,73.2L99.4,73.2z M108.1,69.7C108.2,69.7,108.2,69.7,108.1,69.7l0.1,4.9c0,0,0,0.1-0.1,0.1H108
		c-0.1,0-0.2-0.1-0.3-0.2l-3.3-3.9v4c0,0,0,0.1-0.1,0.1H104c-0.1,0-0.1,0-0.1-0.1v-4.8c0,0,0-0.1,0.1-0.1h0.2c0,0,0.1,0,0.1,0.1
		l3.4,4v-4c0,0,0-0.1,0.1-0.1L108.1,69.7L108.1,69.7L108.1,69.7z M113.2,69.7C113.3,69.7,113.3,69.7,113.2,69.7l-2,2.9v2
		c0,0.1,0,0.1-0.1,0.1h-0.2c-0.1,0-0.2-0.1-0.2-0.2v-1.9l-2-2.9c0,0,0-0.1,0-0.1h0.4c0,0,0.1,0,0.1,0.1l1.7,2.4l1.7-2.4
		c0,0,0-0.1,0.1-0.1L113.2,69.7L113.2,69.7L113.2,69.7z M117.4,69.7C117.5,69.7,117.5,69.7,117.4,69.7l0.1,0.4c0,0,0,0.1-0.1,0.1
		h-1.6v4.4c0,0.1,0,0.1-0.1,0.1h-0.2c-0.1,0-0.2-0.1-0.2-0.2v-4.3h-1.6c-0.1,0-0.1,0-0.1-0.1v-0.3c0-0.1,0-0.1,0.1-0.1L117.4,69.7
		L117.4,69.7L117.4,69.7z M118.7,69.7h-0.3c-0.1,0-0.1,0-0.1,0.1v4.8c0,0,0,0.1,0.1,0.1h0.3c0,0,0.1,0,0.1-0.1L118.7,69.7
		C118.8,69.7,118.8,69.7,118.7,69.7L118.7,69.7L118.7,69.7z M125.4,69.7C125.5,69.7,125.5,69.7,125.4,69.7l0.1,4.9
		c0,0.1,0,0.1-0.1,0.1h-0.3c-0.1,0-0.1,0-0.1-0.1v-3.9l-2.3,3.8c0,0,0,0.1-0.1,0.1h0c0,0-0.1,0-0.1-0.1l-2.3-3.8v3.9
		c0,0.1,0,0.1-0.1,0.1h-0.3c-0.1,0-0.1,0-0.1-0.1v-4.8c0,0,0-0.1,0.1-0.1h0.3c0,0,0.1,0,0.1,0.1l2.4,4l2.4-4c0,0,0-0.1,0.1-0.1
		L125.4,69.7L125.4,69.7L125.4,69.7z M129.6,70.2l-2.7,0V72h1.7c0.1,0,0.1,0,0.1,0.1v0.3c0,0.1,0,0.1-0.1,0.1h-1.7v1.7h2.7
		c0.1,0,0.1,0,0.1,0.1v0.3c0,0.1,0,0.1-0.1,0.1h-3.1c-0.1,0-0.1,0-0.1-0.1v-4.8c0-0.1,0-0.1,0.1-0.1h3.1c0.1,0,0.1,0,0.1,0.1
		L129.6,70.2C129.7,70.1,129.7,70.2,129.6,70.2L129.6,70.2L129.6,70.2z M136.9,74.6C137,74.6,136.9,74.7,136.9,74.6l-0.4,0.1
		c0,0-0.1,0-0.1-0.1l-0.4-0.9h-3l-0.4,0.9c0,0,0,0.1-0.1,0.1h-0.4c0,0-0.1,0,0-0.1l2.3-4.9c0,0,0-0.1,0.1-0.1h0.1c0,0,0.1,0,0.1,0.1
		L136.9,74.6L136.9,74.6z M133.2,73.2h2.6l-1.3-2.7L133.2,73.2L133.2,73.2z M141.9,69.7C141.9,69.7,141.9,69.7,141.9,69.7l0.1,4.9
		c0,0,0,0.1-0.1,0.1h-0.1c-0.1,0-0.2-0.1-0.3-0.2l-3.3-3.9v4c0,0,0,0.1-0.1,0.1h-0.3c-0.1,0-0.1,0-0.1-0.1v-4.8c0,0,0-0.1,0.1-0.1
		h0.2c0,0,0.1,0,0.1,0.1l3.4,4v-4c0,0,0-0.1,0.1-0.1L141.9,69.7L141.9,69.7L141.9,69.7z M146.9,69.7C147,69.7,147,69.7,146.9,69.7
		l-2,2.9v2c0,0.1,0,0.1-0.1,0.1h-0.2c-0.1,0-0.2-0.1-0.2-0.2v-1.9l-2-2.9c0,0,0-0.1,0-0.1h0.4c0,0,0.1,0,0.1,0.1l1.7,2.4l1.7-2.4
		c0,0,0-0.1,0.1-0.1L146.9,69.7L146.9,69.7L146.9,69.7z M153.9,69.7c0,0,0.1,0,0.1,0.1l-2.3,4.8c0,0,0,0.1-0.1,0.1h-0.1
		c0,0-0.1,0-0.1-0.1l-0.8-1.7l-0.8,1.7c0,0,0,0.1-0.1,0.1h-0.1c0,0-0.1,0-0.1-0.1l-2.3-4.9c0-0.1,0-0.1,0.1-0.1h0.4
		c0.1,0,0.1,0,0.1,0.1l1.9,4l0.6-1.4l-1.2-2.6c0-0.1,0-0.1,0.1-0.1h0.4c0,0,0.1,0,0.1,0.1l0.9,2l0.9-2c0-0.1,0-0.1,0.1-0.1h0.4
		c0,0,0.1,0,0,0.1l-1.2,2.6l0.6,1.4l1.9-4c0-0.1,0-0.1,0.1-0.1L153.9,69.7L153.9,69.7L153.9,69.7z M158.7,69.7
		C158.7,69.7,158.7,69.7,158.7,69.7l0.1,4.9c0,0,0,0.1-0.1,0.1h-0.2c-0.1,0-0.2-0.1-0.2-0.2v-2h-3.2v2.1c0,0.1,0,0.1-0.1,0.1h-0.3
		c-0.1,0-0.1,0-0.1-0.1v-4.8c0-0.1,0-0.1,0.1-0.1h0.3c0,0,0.1,0,0.1,0.1V72h3.2v-2.2c0-0.1,0-0.1,0.1-0.1L158.7,69.7L158.7,69.7
		L158.7,69.7z M162.9,70.2l-2.7,0V72h1.7c0.1,0,0.1,0,0.1,0.1v0.3c0,0.1,0,0.1-0.1,0.1h-1.7v1.7h2.7c0.1,0,0.1,0,0.1,0.1v0.3
		c0,0.1,0,0.1-0.1,0.1h-3.1c-0.1,0-0.1,0-0.1-0.1v-4.8c0-0.1,0-0.1,0.1-0.1h3.1c0.1,0,0.1,0,0.1,0.1L162.9,70.2
		C163,70.1,162.9,70.2,162.9,70.2L162.9,70.2L162.9,70.2z M167.3,74.6C167.4,74.6,167.4,74.7,167.3,74.6l-0.4,0.1
		c-0.1,0-0.2-0.1-0.2-0.1l-1.1-1.6h0h-1.4v1.6c0,0.1,0,0.1-0.1,0.1h-0.3c-0.1,0-0.1,0-0.1-0.1v-4.8c0-0.1,0-0.1,0.1-0.1h1.8
		c1.2,0,1.7,0.9,1.7,1.6c0,0.6-0.4,1.4-1.2,1.6L167.3,74.6L167.3,74.6z M164.2,70.2l0,2.3h1.4c0.8,0,1.3-0.6,1.3-1.2
		c0-0.6-0.4-1.2-1.3-1.2H164.2L164.2,70.2L164.2,70.2z M171.3,70.2l-2.7,0V72h1.7c0.1,0,0.1,0,0.1,0.1v0.3c0,0.1,0,0.1-0.1,0.1h-1.7
		v1.7h2.7c0.1,0,0.1,0,0.1,0.1v0.3c0,0.1,0,0.1-0.1,0.1h-3.1c-0.1,0-0.1,0-0.1-0.1v-4.8c0-0.1,0-0.1,0.1-0.1h3.1
		c0.1,0,0.1,0,0.1,0.1L171.3,70.2C171.4,70.1,171.4,70.2,171.3,70.2L171.3,70.2L171.3,70.2z"/>
</g>
</svg>
