<?xml version="1.0" encoding="UTF-8"?>
<svg width="25px" height="32px" viewBox="0 0 25 32" version="1.1" xmlns="http://www.w3.org/2000/svg" xmlns:xlink="http://www.w3.org/1999/xlink">
    <!-- Generator: Sketch 56.3 (81716) - https://sketch.com -->
    <title>maps-and-flags</title>
    <desc>Created with Sketch.</desc>
    <g id="Driver-App-(UI)" stroke="none" stroke-width="1" fill="none" fill-rule="evenodd">
        <g id="maps-and-flags" fill-rule="nonzero">
            <path d="M24.8655,12.428 C24.8655,22.3795625 13.6310625,31.5960625 13.6310625,31.5960625 C12.974625,32.134625 11.9003125,32.134625 11.243875,31.5960625 C11.243875,31.5960625 0.0094375,22.3795625 0.0094375,12.428 C0.0094375,5.5641875 5.57375,0 12.4375,0 C19.30125,0 24.8655,5.5641875 24.8655,12.428 Z" id="Path" fill="#DD352E"></path>
            <path d="M12.4375,18.680625 C8.98975,18.680625 6.1849375,15.8756875 6.1849375,12.4280625 C6.1849375,8.9804375 8.989875,6.175375 12.4375,6.175375 C15.885125,6.175375 18.6900625,8.9803125 18.6900625,12.4279375 C18.6900625,15.8755625 15.88525,18.680625 12.4375,18.680625 Z" id="Path" fill="#FFFFFF"></path>
        </g>
    </g>
</svg>