<?xml version="1.0" standalone="no"?>
<!DOCTYPE svg PUBLIC "-//W3C//DTD SVG 1.1//EN" "http://www.w3.org/Graphics/SVG/1.1/DTD/svg11.dtd" >
<svg xmlns="http://www.w3.org/2000/svg">
<metadata>Generated by IcoMoon</metadata>
<defs>
<font id="icomoon" horiz-adv-x="1024">
<font-face units-per-em="1024" ascent="960" descent="-64" />
<missing-glyph horiz-adv-x="1024" />
<glyph unicode="&#x20;" horiz-adv-x="512" d="" />
<glyph unicode="&#xe900;" glyph-name="attachment" horiz-adv-x="512" d="M442.176 727.296v-535.296c0-102.822-83.354-186.176-186.176-186.176s-186.176 83.354-186.176 186.176v0 581.824c0 64.259 52.093 116.352 116.352 116.352s116.352-52.093 116.352-116.352v0-488.704c0-25.714-20.846-46.56-46.56-46.56s-46.56 20.846-46.56 46.56v0 442.176h-69.824v-442.176c0-64.259 52.093-116.352 116.352-116.352s116.352 52.093 116.352 116.352v488.704c0 102.822-83.354 186.176-186.176 186.176s-186.176-83.354-186.176-186.176v0-581.824c0-141.385 114.615-256 256-256s256 114.615 256 256v0 535.296z" />
<glyph unicode="&#xe901;" horiz-adv-x="797" d="M393.216-54.083c-5.438 0.004-10.443 1.853-14.424 4.955l0.053-0.039c-69.538 56.444-131.262 117.22-186.765 183.391l-1.709 2.093c-126.329 150.848-190.371 295.631-190.371 430.324 0 217.167 176.049 393.216 393.216 393.216s393.216-176.049 393.216-393.216v0c0-134.694-64.041-279.477-190.342-430.353-57.208-68.27-118.933-129.047-185.982-183.524l-2.491-1.96c-3.926-3.048-8.923-4.887-14.35-4.887-0.018 0-0.036 0-0.054 0h0.003zM393.216 714.154c-0.017 0-0.037 0-0.057 0-81.469 0-147.513-66.044-147.513-147.513s66.044-147.513 147.513-147.513c81.469 0 147.513 66.044 147.513 147.513v0c-0.082 81.416-66.044 147.399-147.445 147.513h-0.011z" />
<glyph unicode="&#xe902;" horiz-adv-x="797" d="M398.677 951.751c-15.811-0.002-31.407-0.911-46.742-2.676l1.873 0.175c198.826-22.191 352.181-188.744 353.405-391.366l0.001-0.125c0-134.895-64.846-279.908-192.785-431.158-49.845-58.396-102.369-111.020-158.701-159.329l-1.92-1.608c17.792-15.119 28.974-23.771 30.296-24.748 3.995-3.072 9.068-4.923 14.573-4.923s10.578 1.851 14.63 4.965l-0.057-0.042c70.48 56.633 132.993 117.55 189.284 183.912l1.633 1.975c127.91 151.135 192.785 296.062 192.785 431.158-1.627 217.834-178.592 393.794-396.655 393.794-0.57 0-1.139-0.001-1.708-0.004h0.088z" />
<glyph unicode="&#xe903;" glyph-name="arrow-down" horiz-adv-x="1791" d="M895.9 244.611l676.627 677.659c23.084 23.222 55.049 37.595 90.37 37.595s67.286-14.373 90.364-37.589l0.006-0.006c23.008-23.289 37.219-55.313 37.219-90.657s-14.212-67.367-37.232-90.67l0.013 0.013-767.341-768.373c-23.108-23.054-55.003-37.31-90.228-37.31-33.299 0-63.622 12.739-86.362 33.61l0.093-0.085-772.157 771.699c-23.25 23.179-37.635 55.238-37.635 90.657 0 70.695 57.31 128.005 128.005 128.005 35.276 0 67.22-14.27 90.373-37.352l-0.003 0.003z" />
<glyph unicode="&#xe904;" glyph-name="arrow-up" horiz-adv-x="1791" d="M895.9 651.275l676.627-677.659c23.084-23.222 55.049-37.595 90.37-37.595s67.286 14.373 90.364 37.589l0.006 0.006c23.008 23.289 37.219 55.313 37.219 90.657s-14.212 67.367-37.232 90.67l0.013-0.013-767.341 768.373c-23.108 23.054-55.003 37.31-90.228 37.31-33.299 0-63.622-12.739-86.362-33.61l0.093 0.085-772.157-771.699c-23.25-23.179-37.635-55.238-37.635-90.657 0-70.695 57.31-128.005 128.005-128.005 35.276 0 67.22 14.27 90.373 37.352l-0.003-0.003z" />
<glyph unicode="&#xe905;" glyph-name="refresh-button" d="M116.271 532.012c32.921 0 62.657 19.766 75.391 50.133 52.578 125.268 176.209 213.551 320.338 213.551 79.437 0 152.264-27.227 210.651-72.386l-45.764-7.085c-15.632-2.423-27.793-14.825-29.911-30.5-2.123-15.666 6.322-30.865 20.737-37.343l251.667-113.222c11.032-4.954 23.812-4.002 33.98 2.533 10.151 6.545 16.317 17.776 16.385 29.861l1.305 277.302c0.088 15.775-10.195 29.726-25.271 34.325-15.101 4.598-31.414-1.238-40.15-14.369l-34.688-52.132c-92.484 91.040-219.211 147.319-358.941 147.319-211.868 0-394.027-129.383-471.717-313.276-10.79-25.489-8.070-54.675 7.207-77.735 15.277-23.068 41.1-36.977 68.782-36.977zM976.513 327.009c-15.279 23.070-41.105 36.977-68.784 36.977-32.921 0-62.657-19.766-75.391-50.133-52.58-125.268-176.211-213.551-320.338-213.551-79.439 0-152.266 27.227-210.655 72.386l45.766 7.081c15.63 2.423 27.79 14.827 29.913 30.504 2.121 15.664-6.322 30.865-20.737 37.343l-251.667 113.222c-11.034 4.952-23.812 4.004-33.982-2.533-10.149-6.545-16.317-17.776-16.383-29.859l-1.307-277.302c-0.088-15.775 10.193-29.726 25.271-34.325 15.101-4.598 31.416 1.24 40.15 14.373l34.688 52.132c92.482-91.045 219.211-147.323 358.941-147.323 211.872 0 394.024 129.381 471.713 313.274 10.796 25.489 8.077 54.673-7.198 77.735z" />
<glyph unicode="&#xe906;" glyph-name="Group-5926" horiz-adv-x="1371" d="M692.392 789.009s154.074-142.479 141.381-353.226 46.423-315.168 130.78-345.254-660.421 0-660.421 0 135.066 170.618 132.892 285.040-35.822 252.801 90.755 341.175 164.614 72.264 164.614 72.264zM1116.246 96.307l-73.3 122.166c-32.483 53.267-51.728 117.694-51.765 186.614v106.916c0 164.948-133.717 298.665-298.665 298.665s-298.665-133.717-298.665-298.665v0-106.968c-0.037-68.93-19.283-133.358-52.673-188.23l0.907 1.605-73.3-122.166c-1.919-3.137-3.056-6.933-3.056-10.995 0-11.767 9.539-21.307 21.307-21.307 0.019 0 0.038 0 0.057 0h810.848c0.016 0 0.035 0 0.054 0 11.767 0 21.307 9.539 21.307 21.307 0 4.062-1.137 7.858-3.109 11.089l0.053-0.094zM324.962 106.66l53.836 89.823c36.304 59.523 57.801 131.526 57.811 208.549v106.971c0 141.385 114.615 256 256 256s256-114.615 256-256v-106.968c0.003-77.016 21.47-149.017 58.744-210.35l-1.015 1.798 53.836-89.823zM692.599 960c-47.107-0.047-85.283-38.222-85.33-85.325v-85.335c0-11.784 9.553-21.338 21.338-21.338s21.338 9.553 21.338 21.338v0 85.33c-0.007 0.28-0.010 0.609-0.010 0.94 0 23.569 19.106 42.675 42.675 42.675s42.675-19.106 42.675-42.675c0-0.331-0.004-0.66-0.011-0.989l0.001 0.049v-85.33c0-11.784 9.553-21.338 21.338-21.338s21.338 9.553 21.338 21.338v0 85.33c-0.047 47.115-38.234 85.294-85.347 85.33h-0.003zM784.948 96.141c-3.701 6.678-10.708 11.125-18.753 11.125-11.802 0-21.369-9.567-21.369-21.369 0-4.208 1.216-8.132 3.317-11.439l-0.052 0.087c5.396-9.183 8.583-20.227 8.583-32.015 0-35.348-28.655-64.003-64.003-64.003s-64.003 28.655-64.003 64.003c0 11.788 3.187 22.832 8.746 32.317l-0.163-0.302c1.646 2.958 2.616 6.488 2.616 10.244 0 11.802-9.567 21.369-21.369 21.369-7.594 0-14.262-3.961-18.052-9.929l-0.052-0.087c-9.072-15.362-14.432-33.851-14.432-53.592 0-58.939 47.78-106.719 106.719-106.719s106.719 47.78 106.719 106.719c0 19.741-5.36 38.23-14.704 54.091l0.272-0.499zM105.228 754.14c0-24.118-19.505-43.669-43.566-43.669s-43.566 19.551-43.566 43.669c0 24.118 19.505 43.669 43.566 43.669s43.566-19.551 43.566-43.669zM1368.26 372.671l-26.421-26.462 26.421-26.462c1.937-1.841 3.142-4.437 3.142-7.314 0-5.569-4.515-10.084-10.084-10.084-2.872 0-5.464 1.201-7.3 3.127l-26.487 26.466-26.462-26.462c-1.804-1.715-4.25-2.77-6.942-2.77-5.569 0-10.084 4.515-10.084 10.084 0 2.697 1.059 5.147 2.784 6.956l26.458 26.458-26.483 26.462c-1.826 1.826-2.955 4.348-2.955 7.133 0 5.571 4.517 10.088 10.088 10.088 2.786 0 5.308-1.129 7.133-2.955v0l26.462-26.483 26.483 26.483c1.786 1.634 4.174 2.635 6.796 2.635 5.569 0 10.084-4.515 10.084-10.084 0-2.622-1.001-5.011-2.641-6.804l0.007 0.008zM75.991 68.064c0-20.984-17.011-37.996-37.996-37.996s-37.996 17.011-37.996 37.996c0 20.984 17.011 37.996 37.996 37.996s37.996-17.011 37.996-37.996z" />
<glyph unicode="&#xe907;" glyph-name="icon-bell-2" horiz-adv-x="1371" d="M692.392 789.009s154.074-142.479 141.381-353.226 46.423-315.168 130.78-345.254-660.421 0-660.421 0 135.066 170.618 132.892 285.040-35.822 252.801 90.755 341.175 164.614 72.264 164.614 72.264zM1116.246 96.307l-73.3 122.166c-32.483 53.267-51.728 117.694-51.765 186.614v106.916c0 164.948-133.717 298.665-298.665 298.665s-298.665-133.717-298.665-298.665v0-106.968c-0.037-68.93-19.283-133.358-52.673-188.23l0.907 1.605-73.3-122.166c-1.919-3.137-3.056-6.933-3.056-10.995 0-11.767 9.539-21.307 21.307-21.307 0.019 0 0.038 0 0.057 0h810.848c0.016 0 0.035 0 0.054 0 11.767 0 21.307 9.539 21.307 21.307 0 4.062-1.137 7.858-3.109 11.089l0.053-0.094zM324.962 106.66l53.836 89.823c36.304 59.523 57.801 131.526 57.811 208.549v106.971c0 141.385 114.615 256 256 256s256-114.615 256-256v-106.968c0.003-77.016 21.47-149.017 58.744-210.35l-1.015 1.798 53.836-89.823zM692.599 960c-47.107-0.047-85.283-38.222-85.33-85.325v-85.335c0-11.784 9.553-21.338 21.338-21.338s21.338 9.553 21.338 21.338v0 85.33c-0.007 0.28-0.010 0.609-0.010 0.94 0 23.569 19.106 42.675 42.675 42.675s42.675-19.106 42.675-42.675c0-0.331-0.004-0.66-0.011-0.989l0.001 0.049v-85.33c0-11.784 9.553-21.338 21.338-21.338s21.338 9.553 21.338 21.338v0 85.33c-0.047 47.115-38.234 85.294-85.347 85.33h-0.003zM784.948 96.141c-3.701 6.678-10.708 11.125-18.753 11.125-11.802 0-21.369-9.567-21.369-21.369 0-4.208 1.216-8.132 3.317-11.439l-0.052 0.087c5.396-9.183 8.583-20.227 8.583-32.015 0-35.348-28.655-64.003-64.003-64.003s-64.003 28.655-64.003 64.003c0 11.788 3.187 22.832 8.746 32.317l-0.163-0.302c1.646 2.958 2.616 6.488 2.616 10.244 0 11.802-9.567 21.369-21.369 21.369-7.594 0-14.262-3.961-18.052-9.929l-0.052-0.087c-9.072-15.362-14.432-33.851-14.432-53.592 0-58.939 47.78-106.719 106.719-106.719s106.719 47.78 106.719 106.719c0 19.741-5.36 38.23-14.704 54.091l0.272-0.499zM105.228 754.14c0-24.118-19.505-43.669-43.566-43.669s-43.566 19.551-43.566 43.669c0 24.118 19.505 43.669 43.566 43.669s43.566-19.551 43.566-43.669zM1368.26 372.671l-26.421-26.462 26.421-26.462c1.937-1.841 3.142-4.437 3.142-7.314 0-5.569-4.515-10.084-10.084-10.084-2.872 0-5.464 1.201-7.3 3.127l-26.487 26.466-26.462-26.462c-1.804-1.715-4.25-2.77-6.942-2.77-5.569 0-10.084 4.515-10.084 10.084 0 2.697 1.059 5.147 2.784 6.956l26.458 26.458-26.483 26.462c-1.826 1.826-2.955 4.348-2.955 7.133 0 5.571 4.517 10.088 10.088 10.088 2.786 0 5.308-1.129 7.133-2.955v0l26.462-26.483 26.483 26.483c1.786 1.634 4.174 2.635 6.796 2.635 5.569 0 10.084-4.515 10.084-10.084 0-2.622-1.001-5.011-2.641-6.804l0.007 0.008zM75.991 68.064c0-20.984-17.011-37.996-37.996-37.996s-37.996 17.011-37.996 37.996c0 20.984 17.011 37.996 37.996 37.996s37.996-17.011 37.996-37.996z" />
<glyph unicode="&#xe908;" glyph-name="icon-bell-3" horiz-adv-x="1371" d="M692.392 789.009s154.074-142.479 141.381-353.226 46.423-315.168 130.78-345.254-660.421 0-660.421 0 135.066 170.618 132.892 285.040-35.822 252.801 90.755 341.175 164.614 72.264 164.614 72.264zM1116.246 96.307l-73.3 122.166c-32.483 53.267-51.728 117.694-51.765 186.614v106.916c0 164.948-133.717 298.665-298.665 298.665s-298.665-133.717-298.665-298.665v0-106.968c-0.037-68.93-19.283-133.358-52.673-188.23l0.907 1.605-73.3-122.166c-1.919-3.137-3.056-6.933-3.056-10.995 0-11.767 9.539-21.307 21.307-21.307 0.019 0 0.038 0 0.057 0h810.848c0.016 0 0.035 0 0.054 0 11.767 0 21.307 9.539 21.307 21.307 0 4.062-1.137 7.858-3.109 11.089l0.053-0.094zM324.962 106.66l53.836 89.823c36.304 59.523 57.801 131.526 57.811 208.549v106.971c0 141.385 114.615 256 256 256s256-114.615 256-256v-106.968c0.003-77.016 21.47-149.017 58.744-210.35l-1.015 1.798 53.836-89.823zM692.599 960c-47.107-0.047-85.283-38.222-85.33-85.325v-85.335c0-11.784 9.553-21.338 21.338-21.338s21.338 9.553 21.338 21.338v0 85.33c-0.007 0.28-0.010 0.609-0.010 0.94 0 23.569 19.106 42.675 42.675 42.675s42.675-19.106 42.675-42.675c0-0.331-0.004-0.66-0.011-0.989l0.001 0.049v-85.33c0-11.784 9.553-21.338 21.338-21.338s21.338 9.553 21.338 21.338v0 85.33c-0.047 47.115-38.234 85.294-85.347 85.33h-0.003zM784.948 96.141c-3.701 6.678-10.708 11.125-18.753 11.125-11.802 0-21.369-9.567-21.369-21.369 0-4.208 1.216-8.132 3.317-11.439l-0.052 0.087c5.396-9.183 8.583-20.227 8.583-32.015 0-35.348-28.655-64.003-64.003-64.003s-64.003 28.655-64.003 64.003c0 11.788 3.187 22.832 8.746 32.317l-0.163-0.302c1.646 2.958 2.616 6.488 2.616 10.244 0 11.802-9.567 21.369-21.369 21.369-7.594 0-14.262-3.961-18.052-9.929l-0.052-0.087c-9.072-15.362-14.432-33.851-14.432-53.592 0-58.939 47.78-106.719 106.719-106.719s106.719 47.78 106.719 106.719c0 19.741-5.36 38.23-14.704 54.091l0.272-0.499zM105.228 754.14c0-24.118-19.505-43.669-43.566-43.669s-43.566 19.551-43.566 43.669c0 24.118 19.505 43.669 43.566 43.669s43.566-19.551 43.566-43.669zM1368.26 372.671l-26.421-26.462 26.421-26.462c1.937-1.841 3.142-4.437 3.142-7.314 0-5.569-4.515-10.084-10.084-10.084-2.872 0-5.464 1.201-7.3 3.127l-26.487 26.466-26.462-26.462c-1.804-1.715-4.25-2.77-6.942-2.77-5.569 0-10.084 4.515-10.084 10.084 0 2.697 1.059 5.147 2.784 6.956l26.458 26.458-26.483 26.462c-1.826 1.826-2.955 4.348-2.955 7.133 0 5.571 4.517 10.088 10.088 10.088 2.786 0 5.308-1.129 7.133-2.955v0l26.462-26.483 26.483 26.483c1.786 1.634 4.174 2.635 6.796 2.635 5.569 0 10.084-4.515 10.084-10.084 0-2.622-1.001-5.011-2.641-6.804l0.007 0.008zM75.991 68.064c0-20.984-17.011-37.996-37.996-37.996s-37.996 17.011-37.996 37.996c0 20.984 17.011 37.996 37.996 37.996s37.996-17.011 37.996-37.996z" />
<glyph unicode="&#xe94d;" glyph-name="history" horiz-adv-x="1088" d="M640 896c247.424 0 448-200.576 448-448s-200.576-448-448-448v96c94.024 0 182.418 36.614 248.902 103.098s103.098 154.878 103.098 248.902c0 94.022-36.614 182.418-103.098 248.902s-154.878 103.098-248.902 103.098c-94.022 0-182.418-36.614-248.902-103.098-51.14-51.138-84.582-115.246-97.306-184.902h186.208l-224-256-224 256h164.57c31.060 217.102 217.738 384 443.43 384zM832 512v-128h-256v320h128v-192z" />
</font></defs></svg>