<svg xmlns="http://www.w3.org/2000/svg" xmlns:xlink="http://www.w3.org/1999/xlink" width="2771.232" height="1130.637" viewBox="0 0 2771.232 1130.637">
  <defs>
    <clipPath id="clip-path">
      <path id="Rectangle_3" data-name="Rectangle 3" d="M8,0H1386.232a0,0,0,0,1,0,0V1130.637a0,0,0,0,1,0,0H0a0,0,0,0,1,0,0V8A8,8,0,0,1,8,0Z" transform="translate(416 247)" fill="#e7e7e7"/>
    </clipPath>
  </defs>
  <g id="Group_236" data-name="Group 236" transform="translate(0 51)">
    <g id="Mask_Group_1" data-name="Mask Group 1" transform="translate(-416 -298)" clip-path="url(#clip-path)">
      <g id="OBJECTS" transform="translate(372.635 346.381)">
        <path id="Path_106" data-name="Path 106" d="M120.271,541.564V444.976l88.689,21.609v44.283H283.98V483.611H436.761V383.626H578.655V316.587l159.616-48.826v215.85H813.29V431.347H972.251V328.538h11.582V217.748h12.278V124.025L1044.9,85.39l49.44,38.635v93.723h12.278v110.79h12.974V429.669h92.086V383.626h184.172v99.985h109.112V615.4H20V541.564Z" transform="translate(61.854 415.349)" fill="#e7e7e7"/>
        <path id="Path_107" data-name="Path 107" d="M1384.687,607.158V491.171l-88.648,25.948v53.205h-75.06V537.582H1068.2V417.5H926.3V337.04L766.688,278.35V537.582H691.668V474.8H532.748V351.364H521.125V218.351H508.847V105.8L460.1,59.39,410.622,105.8v112.55H398.344V351.364H385.411v121.39H293.325V417.5H109.153v120.08H0V695.807H1484.958V607.158Z" transform="translate(0 334.938)" fill="#e7e7e7"/>
        <path id="Path_108" data-name="Path 108" d="M267,148.232l84.392-36.589s-12.278-42.728,36.589-54.924,40.682,36.589,40.682,36.589-6.139-67.08,40.682-73.178,50.832,81.363,50.832,81.363,32.742-42.687,52.878-6.1C587.3,115.859,587.3,124.044,587.3,124.044L650.323,148.6Z" transform="translate(703.439 13.816)" fill="#e7e7e7"/>
        <path id="Path_109" data-name="Path 109" d="M37,181.941,97.981,155.5s-8.8-30.859,26.439-39.658,29.386,26.439,29.386,26.439-4.42-48.5,29.386-52.878,36.834,58.771,36.834,58.771,23.492-30.859,38.185-4.42c10.273,14.693,10.273,20.464,10.273,20.464l45.552,17.64Z" transform="translate(68.562 228.33)" fill="#e7e7e7"/>
        <path id="Path_110" data-name="Path 110" d="M120.13,90.612l51.977-22.551s-7.49-26.193,22.51-33.806,25.047,22.551,25.047,22.551S215.9,15.47,244.712,11.787s31.309,50.095,31.309,50.095,20.013-26.275,32.742-3.765c8.758,12.524,8.758,17.517,8.758,17.517l38.8,15.02Z" transform="translate(325.659 -11.606)" fill="#e7e7e7"/>
      </g>
    </g>
    <g id="Mask_Group_6" data-name="Mask Group 6" transform="translate(969 -298)" clip-path="url(#clip-path)">
      <g id="OBJECTS-2" data-name="OBJECTS" transform="translate(372.635 346.381)">
        <path id="Path_150" data-name="Path 150" d="M120.271,541.564V444.976l88.689,21.609v44.283H283.98V483.611H436.761V383.626H578.655V316.587l159.616-48.826v215.85H813.29V431.347H972.251V328.538h11.582V217.748h12.278V124.025L1044.9,85.39l49.44,38.635v93.723h12.278v110.79h12.974V429.669h92.086V383.626h184.172v99.985h109.112V615.4H20V541.564Z" transform="translate(61.854 415.349)" fill="#e7e7e7"/>
        <path id="Path_151" data-name="Path 151" d="M1384.687,607.158V491.171l-88.648,25.948v53.205h-75.06V537.582H1068.2V417.5H926.3V337.04L766.688,278.35V537.582H691.668V474.8H532.748V351.364H521.125V218.351H508.847V105.8L460.1,59.39,410.622,105.8v112.55H398.344V351.364H385.411v121.39H293.325V417.5H109.153v120.08H0V695.807H1484.958V607.158Z" transform="translate(0 334.938)" fill="#e7e7e7"/>
        <path id="Path_152" data-name="Path 152" d="M267,148.232l84.392-36.589s-12.278-42.728,36.589-54.924,40.682,36.589,40.682,36.589-6.139-67.08,40.682-73.178,50.832,81.363,50.832,81.363,32.742-42.687,52.878-6.1C587.3,115.859,587.3,124.044,587.3,124.044L650.323,148.6Z" transform="translate(703.439 13.816)" fill="#e7e7e7"/>
        <path id="Path_153" data-name="Path 153" d="M37,181.941,97.981,155.5s-8.8-30.859,26.439-39.658,29.386,26.439,29.386,26.439-4.42-48.5,29.386-52.878,36.834,58.771,36.834,58.771,23.492-30.859,38.185-4.42c10.273,14.693,10.273,20.464,10.273,20.464l45.552,17.64Z" transform="translate(68.562 228.33)" fill="#e7e7e7"/>
        <path id="Path_154" data-name="Path 154" d="M120.13,90.612l51.977-22.551s-7.49-26.193,22.51-33.806,25.047,22.551,25.047,22.551S215.9,15.47,244.712,11.787s31.309,50.095,31.309,50.095,20.013-26.275,32.742-3.765c8.758,12.524,8.758,17.517,8.758,17.517l38.8,15.02Z" transform="translate(325.659 -11.606)" fill="#e7e7e7"/>
      </g>
    </g>
  </g>
</svg>
